%YAML 1.1
%TAG !u! tag:unity3d.com,2011:
--- !u!1001 &289669918209558503
PrefabInstance:
  m_ObjectHideFlags: 0
  serializedVersion: 2
  m_Modification:
    m_TransformParent: {fileID: 5108600166269294152}
    m_Modifications:
    - target: {fileID: -8679921383154817045, guid: c2b43a0194ae5ac43b00ad061afc7496, type: 3}
      propertyPath: m_LocalPosition.x
      value: -2.100319
      objectReference: {fileID: 0}
    - target: {fileID: -8679921383154817045, guid: c2b43a0194ae5ac43b00ad061afc7496, type: 3}
      propertyPath: m_LocalPosition.y
      value: 4.0001135
      objectReference: {fileID: 0}
    - target: {fileID: -8679921383154817045, guid: c2b43a0194ae5ac43b00ad061afc7496, type: 3}
      propertyPath: m_LocalPosition.z
      value: -68.999214
      objectReference: {fileID: 0}
    - target: {fileID: -8679921383154817045, guid: c2b43a0194ae5ac43b00ad061afc7496, type: 3}
      propertyPath: m_LocalRotation.x
      value: -0.7071068
      objectReference: {fileID: 0}
    - target: {fileID: -8679921383154817045, guid: c2b43a0194ae5ac43b00ad061afc7496, type: 3}
      propertyPath: m_LocalRotation.y
      value: -0
      objectReference: {fileID: 0}
    - target: {fileID: -8679921383154817045, guid: c2b43a0194ae5ac43b00ad061afc7496, type: 3}
      propertyPath: m_LocalRotation.z
      value: -0
      objectReference: {fileID: 0}
    - target: {fileID: -8679921383154817045, guid: c2b43a0194ae5ac43b00ad061afc7496, type: 3}
      propertyPath: m_LocalRotation.w
      value: 0.7071068
      objectReference: {fileID: 0}
    - target: {fileID: -8679921383154817045, guid: c2b43a0194ae5ac43b00ad061afc7496, type: 3}
      propertyPath: m_RootOrder
      value: 1
      objectReference: {fileID: 0}
    - target: {fileID: -8679921383154817045, guid: c2b43a0194ae5ac43b00ad061afc7496, type: 3}
      propertyPath: m_LocalEulerAnglesHint.x
      value: -90
      objectReference: {fileID: 0}
    - target: {fileID: -8679921383154817045, guid: c2b43a0194ae5ac43b00ad061afc7496, type: 3}
      propertyPath: m_LocalEulerAnglesHint.y
      value: 0
      objectReference: {fileID: 0}
    - target: {fileID: -8679921383154817045, guid: c2b43a0194ae5ac43b00ad061afc7496, type: 3}
      propertyPath: m_LocalEulerAnglesHint.z
      value: 0
      objectReference: {fileID: 0}
    - target: {fileID: -8679921383154817045, guid: c2b43a0194ae5ac43b00ad061afc7496, type: 3}
      propertyPath: m_LocalScale.x
      value: 0.6224138
      objectReference: {fileID: 0}
    - target: {fileID: -8679921383154817045, guid: c2b43a0194ae5ac43b00ad061afc7496, type: 3}
      propertyPath: m_LocalScale.y
      value: 0.2690909
      objectReference: {fileID: 0}
    - target: {fileID: -8679921383154817045, guid: c2b43a0194ae5ac43b00ad061afc7496, type: 3}
      propertyPath: m_LocalScale.z
      value: 0.6224138
      objectReference: {fileID: 0}
    - target: {fileID: 919132149155446097, guid: c2b43a0194ae5ac43b00ad061afc7496, type: 3}
      propertyPath: m_Name
      value: ExitTextOptimised
      objectReference: {fileID: 0}
    m_RemovedComponents: []
  m_SourcePrefab: {fileID: 100100000, guid: c2b43a0194ae5ac43b00ad061afc7496, type: 3}
--- !u!1001 &4913032544113577153
PrefabInstance:
  m_ObjectHideFlags: 0
  serializedVersion: 2
  m_Modification:
    m_TransformParent: {fileID: 0}
    m_Modifications:
    - target: {fileID: 269469073075533952, guid: 35954817c85a9084b85065a92f6f22b9, type: 3}
      propertyPath: m_Materials.Array.data[0]
      value: 
      objectReference: {fileID: 2100000, guid: 88c577fbd810a614f9e17ed8f205284e, type: 2}
    - target: {fileID: 8331432278871487827, guid: 35954817c85a9084b85065a92f6f22b9, type: 3}
      propertyPath: m_Name
      value: ExitGameButton
      objectReference: {fileID: 0}
    - target: {fileID: 8706831544060997609, guid: 35954817c85a9084b85065a92f6f22b9, type: 3}
      propertyPath: m_LocalPosition.x
      value: 0
      objectReference: {fileID: 0}
    - target: {fileID: 8706831544060997609, guid: 35954817c85a9084b85065a92f6f22b9, type: 3}
      propertyPath: m_LocalPosition.y
      value: 0
      objectReference: {fileID: 0}
    - target: {fileID: 8706831544060997609, guid: 35954817c85a9084b85065a92f6f22b9, type: 3}
      propertyPath: m_LocalPosition.z
      value: 0
      objectReference: {fileID: 0}
    - target: {fileID: 8706831544060997609, guid: 35954817c85a9084b85065a92f6f22b9, type: 3}
      propertyPath: m_LocalRotation.x
      value: 0.7071068
      objectReference: {fileID: 0}
    - target: {fileID: 8706831544060997609, guid: 35954817c85a9084b85065a92f6f22b9, type: 3}
      propertyPath: m_LocalRotation.y
      value: -0
      objectReference: {fileID: 0}
    - target: {fileID: 8706831544060997609, guid: 35954817c85a9084b85065a92f6f22b9, type: 3}
      propertyPath: m_LocalRotation.z
      value: -0
      objectReference: {fileID: 0}
    - target: {fileID: 8706831544060997609, guid: 35954817c85a9084b85065a92f6f22b9, type: 3}
      propertyPath: m_LocalRotation.w
      value: 0.7071068
      objectReference: {fileID: 0}
    - target: {fileID: 8706831544060997609, guid: 35954817c85a9084b85065a92f6f22b9, type: 3}
      propertyPath: m_RootOrder
      value: 0
      objectReference: {fileID: 0}
    - target: {fileID: 8706831544060997609, guid: 35954817c85a9084b85065a92f6f22b9, type: 3}
      propertyPath: m_LocalEulerAnglesHint.x
      value: 90
      objectReference: {fileID: 0}
    - target: {fileID: 8706831544060997609, guid: 35954817c85a9084b85065a92f6f22b9, type: 3}
      propertyPath: m_LocalEulerAnglesHint.y
      value: 0
      objectReference: {fileID: 0}
    - target: {fileID: 8706831544060997609, guid: 35954817c85a9084b85065a92f6f22b9, type: 3}
      propertyPath: m_LocalEulerAnglesHint.z
      value: 0
      objectReference: {fileID: 0}
    m_RemovedComponents: []
  m_SourcePrefab: {fileID: 100100000, guid: 35954817c85a9084b85065a92f6f22b9, type: 3}
--- !u!4 &5108600166269294152 stripped
Transform:
  m_CorrespondingSourceObject: {fileID: 201533718545390217, guid: 35954817c85a9084b85065a92f6f22b9, type: 3}
  m_PrefabInstance: {fileID: 4913032544113577153}
  m_PrefabAsset: {fileID: 0}
